{
	"name": "Content Management System",
	"description": "Package description",
	"autor": "Master IV",

	"panelstatus": ["Aktiv", "Inaktiv", "Unregistered only", "Registered Only", "Keine Vererbung", "Admin Only"],
	"layerstatus": ["Aktiv", "Inaktiv", "Unregistered only", "Registered Only", "Admin Only"],

	"directories": {
		"style/default/layer/": 777,
		"style/default/panel/": 777
	},

	"rights": {
		"script": {
			"provider": "rights_scripts",
			"caption": "Scripts",
			"always": [],
			"arguments": {}
		}
	},

	"options": {
		"page": {
			"caption": "Seiteneinstellungen",
			"items": {
				"title": { "type": "text", "caption": "Seitentitel", "value": "IV CMS Page" },
				"name": { "type": "text", "caption": "Name der Seite", "value": "IV Content Management System" },
				"url": { "type": "text", "caption": "Url der Seite", "value": "http://iv-cms.de" },
				"style": { "type": "glob", "pattern": "style/*", "caption": "Style", "value": "default" },
				"startpage": { "type": "hidden", "caption": "Startseite", "value": 1 },
				"force_rewrite": { "type": "checkbox", "caption": "Force URL Rewrite", "value": 0 }
			}
		}
	},

	"scripts": {
		"php": {
			"name": "PHP-Panel",
			"script": "iv.php.script",
			"editor": "iv.source.editor"
		},
		"html": {
			"name": "HTML-Panel",
			"script": "iv.html.script",
			"editor": "iv.source.editor"
		},
		"menu": {
			"name": "Menü-Panel",
			"script": "iv.menu.script"
		}
	},

	"moduls": [
		{
			"file": "iv.content",
			"icon": "index.png",
			"name": "Content Manager"
		}
	]
}
